{
    "KPlugin": {
        "Authors": [
            {
                "Email": "chani@kde.org",
                "Name": "Chani",
                "Name[ar]": "تشاني",
                "Name[az]": "Chani",
                "Name[be]": "Chani",
                "Name[bg]": "Chani",
                "Name[ca@valencia]": "Chani",
                "Name[ca]": "Chani",
                "Name[cs]": "Chani",
                "Name[da]": "Chani",
                "Name[de]": "Chani",
                "Name[en_GB]": "Chani",
                "Name[es]": "Chani",
                "Name[et]": "Chani",
                "Name[eu]": "Chani",
                "Name[fi]": "Chani",
                "Name[fr]": "Chani",
                "Name[hu]": "Chani",
                "Name[ia]": "Chani",
                "Name[id]": "Chani",
                "Name[is]": "Chani",
                "Name[it]": "Chani",
                "Name[ja]": "Chani",
                "Name[ka]": "Chani",
                "Name[ko]": "Chani",
                "Name[lt]": "Chani",
                "Name[nl]": "Chani",
                "Name[nn]": "Chani",
                "Name[pl]": "Chani",
                "Name[pt]": "Chani",
                "Name[pt_BR]": "Chani",
                "Name[ro]": "Chani",
                "Name[ru]": "Chani",
                "Name[sk]": "Chani",
                "Name[sl]": "Chani",
                "Name[sv]": "Chani",
                "Name[ta]": "இச்சானி",
                "Name[tr]": "Chani",
                "Name[uk]": "Chani",
                "Name[vi]": "Chani",
                "Name[x-test]": "xxChanixx",
                "Name[zh_CN]": "Chani"
            }
        ],
        "Description": "Creates a widget from the contents of the clipboard",
        "Description[ar]": "أنشئ ودجة من محتويات الحافظة",
        "Description[az]": "Mübadilə buferinin tərkiblərindən vidjet yaradır",
        "Description[be]": "Віджэт са змесцівам буфера абмену",
        "Description[bg]": "Създава уиджет от съдържанието на клипборда",
        "Description[ca@valencia]": "Crea un giny a partir del contingut del porta-retalls",
        "Description[ca]": "Crea un giny a partir del contingut del porta-retalls",
        "Description[cs]": "Vytvoří widget z obsahu schránky",
        "Description[da]": "Opretter en widget ud fra indholdet af udklipsholderen",
        "Description[de]": "Erzeugt ein Miniprogramm aus dem Inhalt der Zwischenablage",
        "Description[en_GB]": "Creates a widget from the contents of the clipboard",
        "Description[es]": "Crea un elemento gráfico con los contenidos del portapapeles",
        "Description[et]": "Vidina loomine lõikepuhvri sisu põhjal",
        "Description[eu]": "Arbelaren edukitik trepeta bat sortzen du",
        "Description[fi]": "Luo leikepöydän sisällöstä sovelman",
        "Description[fr]": "Crée un composant graphique à partir du contenu du presse-papier.",
        "Description[hu]": "Készít egy widgetet a vágólap tartalmából",
        "Description[ia]": "Il crea elemento graphic (Widget) ex le contentos del area de transferentia (clipboard)",
        "Description[id]": "Membuat widget dari konten clipboard",
        "Description[is]": "Búa til græju úr innihaldi klippispjaldsins",
        "Description[it]": "Crea un oggetto dai contenuti degli appunti",
        "Description[ja]": "クリップボードの内容からウィジェットを作成します",
        "Description[ko]": "클립보드 내용을 기반으로 위젯을 만듭니다",
        "Description[lt]": "Sukuria valdiklį iš iškarpinės turinio",
        "Description[nl]": "Maakt een widget aan uit de inhoud van het klembord",
        "Description[nn]": "Lagar eit element frå innhaldet på utklippstavla",
        "Description[pa]": "ਕਲਿੱਪਬੋਰਡ ਦੀ ਸਮੱਗਰੀ ਤੋਂ ਵਿਜੈੱਟ ਬਣਾਓ",
        "Description[pl]": "Wyświetla zawartość schowka",
        "Description[pt]": "Cria um elemento a partir do conteúdo da área de transferência",
        "Description[pt_BR]": "Cria um widget a partir do conteúdo da área de transferência",
        "Description[ro]": "Creează un control din conținutul clipboard-ului",
        "Description[ru]": "Создание виджета с содержимым буфера обмена",
        "Description[sk]": "Vytvorí miniaplikáciu z obsahu schránky",
        "Description[sl]": "Ustvari gradnik iz vsebine odložišča",
        "Description[sv]": "Skapa komponent från klippbordets innehåll",
        "Description[ta]": "பிடிப்புப்பலகையின் உள்ளடக்கத்திலிருந்து ஒரு பிளாஸ்மாய்டை உருவாக்கும்",
        "Description[tr]": "Pano içeriğinden bir araç takımı oluşturur",
        "Description[uk]": "Створює віджет з вмістом буфера обміну даними",
        "Description[vi]": "Tạo một phụ kiện từ nội dung của bảng nháp",
        "Description[x-test]": "xxCreates a widget from the contents of the clipboardxx",
        "Description[zh_CN]": "创建基于剪贴板内容的挂件",
        "EnabledByDefault": true,
        "Icon": "edit-paste",
        "Id": "org.kde.paste",
        "License": "GPL",
        "Name": "Paste",
        "Name[ar]": "ألصق",
        "Name[az]": "Mətn Yerləşdirmə",
        "Name[be]": "Уставіць",
        "Name[bg]": "Поставяне",
        "Name[bn]": "পেস্ট",
        "Name[bs]": "Naljepljivanje",
        "Name[ca@valencia]": "Apega",
        "Name[ca]": "Enganxa",
        "Name[cs]": "Vložit",
        "Name[csb]": "Wlepi",
        "Name[da]": "Indsæt",
        "Name[de]": "Einfügen",
        "Name[el]": "Επικόλληση",
        "Name[en_GB]": "Paste",
        "Name[eo]": "Glui",
        "Name[es]": "Pegar",
        "Name[et]": "Asetamine",
        "Name[eu]": "Itsatsi",
        "Name[fa]": "چسباندن",
        "Name[fi]": "Liitä",
        "Name[fr]": "Coller",
        "Name[fy]": "Plakke",
        "Name[ga]": "Greamaigh",
        "Name[gl]": "Pegar",
        "Name[gu]": "ચોટાડો",
        "Name[he]": "הדבקה",
        "Name[hi]": "चिपकाएँ",
        "Name[hr]": "Umetni",
        "Name[hsb]": "Zasunyć",
        "Name[hu]": "Beillesztés",
        "Name[ia]": "Colla",
        "Name[id]": "Tempel",
        "Name[is]": "Líma",
        "Name[it]": "Incolla",
        "Name[ja]": "貼り付け",
        "Name[ka]": "ჩასმა",
        "Name[kk]": "Орналастыру",
        "Name[km]": "បិទភ្ជាប់",
        "Name[kn]": "ಅಂಟಿಸು",
        "Name[ko]": "붙여넣기",
        "Name[lt]": "Įdėti",
        "Name[lv]": "Ielīmēt",
        "Name[ml]": "ഒട്ടിയ്ക്കുക",
        "Name[mr]": "चिटकवा",
        "Name[nb]": "Lim inn",
        "Name[nds]": "Infögen",
        "Name[nl]": "Plakken",
        "Name[nn]": "Tekst­bitar",
        "Name[pa]": "ਚੇਪੋ",
        "Name[pl]": "Wklej",
        "Name[pt]": "Colar",
        "Name[pt_BR]": "Colar",
        "Name[ro]": "Lipire",
        "Name[ru]": "Вставка текста",
        "Name[si]": "අලවන්න",
        "Name[sk]": "Vložiť",
        "Name[sl]": "Prilepi",
        "Name[sr@ijekavian]": "наљепљивање",
        "Name[sr@ijekavianlatin]": "naljepljivanje",
        "Name[sr@latin]": "nalepljivanje",
        "Name[sr]": "налепљивање",
        "Name[sv]": "Klistra in",
        "Name[ta]": "ஒட்டு",
        "Name[tg]": "Гузоштан",
        "Name[th]": "วาง",
        "Name[tr]": "Yapıştır",
        "Name[ug]": "چاپلا",
        "Name[uk]": "Вставка",
        "Name[vi]": "Dán",
        "Name[wa]": "Aclaper",
        "Name[x-test]": "xxPastexx",
        "Name[zh_CN]": "粘贴",
        "Name[zh_TW]": "貼上",
        "Version": "pre0.1",
        "Website": "https://www.kde.org/plasma-desktop"
    }
}
